\relax 
\catcode `"\active 
\catcode `<\active 
\catcode `>\active 
\@nameuse{es@quoting}
\newlabel{FirstPage}{{}{1}{}{}{}}
\@writefile{toc}{\contentsline {title}{Viscosidad en fluidos}{1}{}}
\@writefile{toc}{\contentsline {abstract}{Resumen}{1}{}}
\@writefile{toc}{\contentsline {section}{\numberline {I}Introducci\IeC {\'o}n}{1}{}}
\@writefile{lof}{\contentsline {figure}{\numberline {1}{\ignorespaces Diagrama de cuerpo libre de una esfera en el seno de un fluido viscoso.}}{1}{}}
\newlabel{fig:diagramaCuerpoLibre}{{1}{1}{}{}{}}
\newlabel{eq:empuje}{{1}{1}{}{}{}}
\newlabel{eq:stokes}{{2}{1}{}{}{}}
\newlabel{eq:2da}{{3}{1}{}{}{}}
\newlabel{eq:vlim}{{4}{1}{}{}{}}
\@writefile{toc}{\contentsline {section}{\numberline {II}Actividades de medici\IeC {\'o}n}{1}{}}
\@writefile{toc}{\contentsline {subsection}{\numberline {A}Programa \emph  {Tracker}}{1}{}}
\@writefile{toc}{\contentsline {subsubsection}{\numberline {1}Ayuda}{1}{}}
\bibdata{viscosidadNotes}
\bibstyle{aipnum4-1}
\citation{REVTEX41Control}
\citation{aip41Control}
\newlabel{LastPage}{{}{2}{}{}{}}
