<?xml version="1.0" encoding="utf-8" standalone="no"?>
<!DOCTYPE svg PUBLIC "-//W3C//DTD SVG 1.1//EN"
  "http://www.w3.org/Graphics/SVG/1.1/DTD/svg11.dtd">
<!-- Created with matplotlib (https://matplotlib.org/) -->
<svg height="288pt" version="1.1" viewBox="0 0 432 288" width="432pt" xmlns="http://www.w3.org/2000/svg" xmlns:xlink="http://www.w3.org/1999/xlink">
 <defs>
  <style type="text/css">
*{stroke-linecap:butt;stroke-linejoin:round;}
  </style>
 </defs>
 <g id="figure_1">
  <g id="patch_1">
   <path d="M 0 288 
L 432 288 
L 432 0 
L 0 0 
z
" style="fill:#ffffff;"/>
  </g>
  <g id="axes_1">
   <g id="patch_2">
    <path d="M 54 252 
L 388.8 252 
L 388.8 34.56 
L 54 34.56 
z
" style="fill:#ffffff;"/>
   </g>
   <g id="matplotlib.axis_1">
    <g id="xtick_1">
     <g id="line2d_1">
      <defs>
       <path d="M 0 0 
L 0 3.5 
" id="mdc69961eb2" style="stroke:#000000;stroke-width:0.8;"/>
      </defs>
      <g>
       <use style="stroke:#000000;stroke-width:0.8;" x="54" xlink:href="#mdc69961eb2" y="252"/>
      </g>
     </g>
     <g id="text_1">
      <!-- 0 -->
      <defs>
       <path d="M 31.78125 66.40625 
Q 24.171875 66.40625 20.328125 58.90625 
Q 16.5 51.421875 16.5 36.375 
Q 16.5 21.390625 20.328125 13.890625 
Q 24.171875 6.390625 31.78125 6.390625 
Q 39.453125 6.390625 43.28125 13.890625 
Q 47.125 21.390625 47.125 36.375 
Q 47.125 51.421875 43.28125 58.90625 
Q 39.453125 66.40625 31.78125 66.40625 
z
M 31.78125 74.21875 
Q 44.046875 74.21875 50.515625 64.515625 
Q 56.984375 54.828125 56.984375 36.375 
Q 56.984375 17.96875 50.515625 8.265625 
Q 44.046875 -1.421875 31.78125 -1.421875 
Q 19.53125 -1.421875 13.0625 8.265625 
Q 6.59375 17.96875 6.59375 36.375 
Q 6.59375 54.828125 13.0625 64.515625 
Q 19.53125 74.21875 31.78125 74.21875 
z
" id="DejaVuSans-48"/>
      </defs>
      <g transform="translate(50.81875 266.598437)scale(0.1 -0.1)">
       <use xlink:href="#DejaVuSans-48"/>
      </g>
     </g>
    </g>
    <g id="xtick_2">
     <g id="line2d_2">
      <g>
       <use style="stroke:#000000;stroke-width:0.8;" x="120.96" xlink:href="#mdc69961eb2" y="252"/>
      </g>
     </g>
     <g id="text_2">
      <!-- 2 -->
      <defs>
       <path d="M 19.1875 8.296875 
L 53.609375 8.296875 
L 53.609375 0 
L 7.328125 0 
L 7.328125 8.296875 
Q 12.9375 14.109375 22.625 23.890625 
Q 32.328125 33.6875 34.8125 36.53125 
Q 39.546875 41.84375 41.421875 45.53125 
Q 43.3125 49.21875 43.3125 52.78125 
Q 43.3125 58.59375 39.234375 62.25 
Q 35.15625 65.921875 28.609375 65.921875 
Q 23.96875 65.921875 18.8125 64.3125 
Q 13.671875 62.703125 7.8125 59.421875 
L 7.8125 69.390625 
Q 13.765625 71.78125 18.9375 73 
Q 24.125 74.21875 28.421875 74.21875 
Q 39.75 74.21875 46.484375 68.546875 
Q 53.21875 62.890625 53.21875 53.421875 
Q 53.21875 48.921875 51.53125 44.890625 
Q 49.859375 40.875 45.40625 35.40625 
Q 44.1875 33.984375 37.640625 27.21875 
Q 31.109375 20.453125 19.1875 8.296875 
z
" id="DejaVuSans-50"/>
      </defs>
      <g transform="translate(117.77875 266.598437)scale(0.1 -0.1)">
       <use xlink:href="#DejaVuSans-50"/>
      </g>
     </g>
    </g>
    <g id="xtick_3">
     <g id="line2d_3">
      <g>
       <use style="stroke:#000000;stroke-width:0.8;" x="187.92" xlink:href="#mdc69961eb2" y="252"/>
      </g>
     </g>
     <g id="text_3">
      <!-- 4 -->
      <defs>
       <path d="M 37.796875 64.3125 
L 12.890625 25.390625 
L 37.796875 25.390625 
z
M 35.203125 72.90625 
L 47.609375 72.90625 
L 47.609375 25.390625 
L 58.015625 25.390625 
L 58.015625 17.1875 
L 47.609375 17.1875 
L 47.609375 0 
L 37.796875 0 
L 37.796875 17.1875 
L 4.890625 17.1875 
L 4.890625 26.703125 
z
" id="DejaVuSans-52"/>
      </defs>
      <g transform="translate(184.73875 266.598437)scale(0.1 -0.1)">
       <use xlink:href="#DejaVuSans-52"/>
      </g>
     </g>
    </g>
    <g id="xtick_4">
     <g id="line2d_4">
      <g>
       <use style="stroke:#000000;stroke-width:0.8;" x="254.88" xlink:href="#mdc69961eb2" y="252"/>
      </g>
     </g>
     <g id="text_4">
      <!-- 6 -->
      <defs>
       <path d="M 33.015625 40.375 
Q 26.375 40.375 22.484375 35.828125 
Q 18.609375 31.296875 18.609375 23.390625 
Q 18.609375 15.53125 22.484375 10.953125 
Q 26.375 6.390625 33.015625 6.390625 
Q 39.65625 6.390625 43.53125 10.953125 
Q 47.40625 15.53125 47.40625 23.390625 
Q 47.40625 31.296875 43.53125 35.828125 
Q 39.65625 40.375 33.015625 40.375 
z
M 52.59375 71.296875 
L 52.59375 62.3125 
Q 48.875 64.0625 45.09375 64.984375 
Q 41.3125 65.921875 37.59375 65.921875 
Q 27.828125 65.921875 22.671875 59.328125 
Q 17.53125 52.734375 16.796875 39.40625 
Q 19.671875 43.65625 24.015625 45.921875 
Q 28.375 48.1875 33.59375 48.1875 
Q 44.578125 48.1875 50.953125 41.515625 
Q 57.328125 34.859375 57.328125 23.390625 
Q 57.328125 12.15625 50.6875 5.359375 
Q 44.046875 -1.421875 33.015625 -1.421875 
Q 20.359375 -1.421875 13.671875 8.265625 
Q 6.984375 17.96875 6.984375 36.375 
Q 6.984375 53.65625 15.1875 63.9375 
Q 23.390625 74.21875 37.203125 74.21875 
Q 40.921875 74.21875 44.703125 73.484375 
Q 48.484375 72.75 52.59375 71.296875 
z
" id="DejaVuSans-54"/>
      </defs>
      <g transform="translate(251.69875 266.598437)scale(0.1 -0.1)">
       <use xlink:href="#DejaVuSans-54"/>
      </g>
     </g>
    </g>
    <g id="xtick_5">
     <g id="line2d_5">
      <g>
       <use style="stroke:#000000;stroke-width:0.8;" x="321.84" xlink:href="#mdc69961eb2" y="252"/>
      </g>
     </g>
     <g id="text_5">
      <!-- 8 -->
      <defs>
       <path d="M 31.78125 34.625 
Q 24.75 34.625 20.71875 30.859375 
Q 16.703125 27.09375 16.703125 20.515625 
Q 16.703125 13.921875 20.71875 10.15625 
Q 24.75 6.390625 31.78125 6.390625 
Q 38.8125 6.390625 42.859375 10.171875 
Q 46.921875 13.96875 46.921875 20.515625 
Q 46.921875 27.09375 42.890625 30.859375 
Q 38.875 34.625 31.78125 34.625 
z
M 21.921875 38.8125 
Q 15.578125 40.375 12.03125 44.71875 
Q 8.5 49.078125 8.5 55.328125 
Q 8.5 64.0625 14.71875 69.140625 
Q 20.953125 74.21875 31.78125 74.21875 
Q 42.671875 74.21875 48.875 69.140625 
Q 55.078125 64.0625 55.078125 55.328125 
Q 55.078125 49.078125 51.53125 44.71875 
Q 48 40.375 41.703125 38.8125 
Q 48.828125 37.15625 52.796875 32.3125 
Q 56.78125 27.484375 56.78125 20.515625 
Q 56.78125 9.90625 50.3125 4.234375 
Q 43.84375 -1.421875 31.78125 -1.421875 
Q 19.734375 -1.421875 13.25 4.234375 
Q 6.78125 9.90625 6.78125 20.515625 
Q 6.78125 27.484375 10.78125 32.3125 
Q 14.796875 37.15625 21.921875 38.8125 
z
M 18.3125 54.390625 
Q 18.3125 48.734375 21.84375 45.5625 
Q 25.390625 42.390625 31.78125 42.390625 
Q 38.140625 42.390625 41.71875 45.5625 
Q 45.3125 48.734375 45.3125 54.390625 
Q 45.3125 60.0625 41.71875 63.234375 
Q 38.140625 66.40625 31.78125 66.40625 
Q 25.390625 66.40625 21.84375 63.234375 
Q 18.3125 60.0625 18.3125 54.390625 
z
" id="DejaVuSans-56"/>
      </defs>
      <g transform="translate(318.65875 266.598437)scale(0.1 -0.1)">
       <use xlink:href="#DejaVuSans-56"/>
      </g>
     </g>
    </g>
    <g id="xtick_6">
     <g id="line2d_6">
      <g>
       <use style="stroke:#000000;stroke-width:0.8;" x="388.8" xlink:href="#mdc69961eb2" y="252"/>
      </g>
     </g>
     <g id="text_6">
      <!-- 10 -->
      <defs>
       <path d="M 12.40625 8.296875 
L 28.515625 8.296875 
L 28.515625 63.921875 
L 10.984375 60.40625 
L 10.984375 69.390625 
L 28.421875 72.90625 
L 38.28125 72.90625 
L 38.28125 8.296875 
L 54.390625 8.296875 
L 54.390625 0 
L 12.40625 0 
z
" id="DejaVuSans-49"/>
      </defs>
      <g transform="translate(382.4375 266.598437)scale(0.1 -0.1)">
       <use xlink:href="#DejaVuSans-49"/>
       <use x="63.623047" xlink:href="#DejaVuSans-48"/>
      </g>
     </g>
    </g>
    <g id="text_7">
     <!-- Tiempo [s] -->
     <defs>
      <path d="M -0.296875 72.90625 
L 61.375 72.90625 
L 61.375 64.59375 
L 35.5 64.59375 
L 35.5 0 
L 25.59375 0 
L 25.59375 64.59375 
L -0.296875 64.59375 
z
" id="DejaVuSans-84"/>
      <path d="M 9.421875 54.6875 
L 18.40625 54.6875 
L 18.40625 0 
L 9.421875 0 
z
M 9.421875 75.984375 
L 18.40625 75.984375 
L 18.40625 64.59375 
L 9.421875 64.59375 
z
" id="DejaVuSans-105"/>
      <path d="M 56.203125 29.59375 
L 56.203125 25.203125 
L 14.890625 25.203125 
Q 15.484375 15.921875 20.484375 11.0625 
Q 25.484375 6.203125 34.421875 6.203125 
Q 39.59375 6.203125 44.453125 7.46875 
Q 49.3125 8.734375 54.109375 11.28125 
L 54.109375 2.78125 
Q 49.265625 0.734375 44.1875 -0.34375 
Q 39.109375 -1.421875 33.890625 -1.421875 
Q 20.796875 -1.421875 13.15625 6.1875 
Q 5.515625 13.8125 5.515625 26.8125 
Q 5.515625 40.234375 12.765625 48.109375 
Q 20.015625 56 32.328125 56 
Q 43.359375 56 49.78125 48.890625 
Q 56.203125 41.796875 56.203125 29.59375 
z
M 47.21875 32.234375 
Q 47.125 39.59375 43.09375 43.984375 
Q 39.0625 48.390625 32.421875 48.390625 
Q 24.90625 48.390625 20.390625 44.140625 
Q 15.875 39.890625 15.1875 32.171875 
z
" id="DejaVuSans-101"/>
      <path d="M 52 44.1875 
Q 55.375 50.25 60.0625 53.125 
Q 64.75 56 71.09375 56 
Q 79.640625 56 84.28125 50.015625 
Q 88.921875 44.046875 88.921875 33.015625 
L 88.921875 0 
L 79.890625 0 
L 79.890625 32.71875 
Q 79.890625 40.578125 77.09375 44.375 
Q 74.3125 48.1875 68.609375 48.1875 
Q 61.625 48.1875 57.5625 43.546875 
Q 53.515625 38.921875 53.515625 30.90625 
L 53.515625 0 
L 44.484375 0 
L 44.484375 32.71875 
Q 44.484375 40.625 41.703125 44.40625 
Q 38.921875 48.1875 33.109375 48.1875 
Q 26.21875 48.1875 22.15625 43.53125 
Q 18.109375 38.875 18.109375 30.90625 
L 18.109375 0 
L 9.078125 0 
L 9.078125 54.6875 
L 18.109375 54.6875 
L 18.109375 46.1875 
Q 21.1875 51.21875 25.484375 53.609375 
Q 29.78125 56 35.6875 56 
Q 41.65625 56 45.828125 52.96875 
Q 50 49.953125 52 44.1875 
z
" id="DejaVuSans-109"/>
      <path d="M 18.109375 8.203125 
L 18.109375 -20.796875 
L 9.078125 -20.796875 
L 9.078125 54.6875 
L 18.109375 54.6875 
L 18.109375 46.390625 
Q 20.953125 51.265625 25.265625 53.625 
Q 29.59375 56 35.59375 56 
Q 45.5625 56 51.78125 48.09375 
Q 58.015625 40.1875 58.015625 27.296875 
Q 58.015625 14.40625 51.78125 6.484375 
Q 45.5625 -1.421875 35.59375 -1.421875 
Q 29.59375 -1.421875 25.265625 0.953125 
Q 20.953125 3.328125 18.109375 8.203125 
z
M 48.6875 27.296875 
Q 48.6875 37.203125 44.609375 42.84375 
Q 40.53125 48.484375 33.40625 48.484375 
Q 26.265625 48.484375 22.1875 42.84375 
Q 18.109375 37.203125 18.109375 27.296875 
Q 18.109375 17.390625 22.1875 11.75 
Q 26.265625 6.109375 33.40625 6.109375 
Q 40.53125 6.109375 44.609375 11.75 
Q 48.6875 17.390625 48.6875 27.296875 
z
" id="DejaVuSans-112"/>
      <path d="M 30.609375 48.390625 
Q 23.390625 48.390625 19.1875 42.75 
Q 14.984375 37.109375 14.984375 27.296875 
Q 14.984375 17.484375 19.15625 11.84375 
Q 23.34375 6.203125 30.609375 6.203125 
Q 37.796875 6.203125 41.984375 11.859375 
Q 46.1875 17.53125 46.1875 27.296875 
Q 46.1875 37.015625 41.984375 42.703125 
Q 37.796875 48.390625 30.609375 48.390625 
z
M 30.609375 56 
Q 42.328125 56 49.015625 48.375 
Q 55.71875 40.765625 55.71875 27.296875 
Q 55.71875 13.875 49.015625 6.21875 
Q 42.328125 -1.421875 30.609375 -1.421875 
Q 18.84375 -1.421875 12.171875 6.21875 
Q 5.515625 13.875 5.515625 27.296875 
Q 5.515625 40.765625 12.171875 48.375 
Q 18.84375 56 30.609375 56 
z
" id="DejaVuSans-111"/>
      <path id="DejaVuSans-32"/>
      <path d="M 8.59375 75.984375 
L 29.296875 75.984375 
L 29.296875 69 
L 17.578125 69 
L 17.578125 -6.203125 
L 29.296875 -6.203125 
L 29.296875 -13.1875 
L 8.59375 -13.1875 
z
" id="DejaVuSans-91"/>
      <path d="M 44.28125 53.078125 
L 44.28125 44.578125 
Q 40.484375 46.53125 36.375 47.5 
Q 32.28125 48.484375 27.875 48.484375 
Q 21.1875 48.484375 17.84375 46.4375 
Q 14.5 44.390625 14.5 40.28125 
Q 14.5 37.15625 16.890625 35.375 
Q 19.28125 33.59375 26.515625 31.984375 
L 29.59375 31.296875 
Q 39.15625 29.25 43.1875 25.515625 
Q 47.21875 21.78125 47.21875 15.09375 
Q 47.21875 7.46875 41.1875 3.015625 
Q 35.15625 -1.421875 24.609375 -1.421875 
Q 20.21875 -1.421875 15.453125 -0.5625 
Q 10.6875 0.296875 5.421875 2 
L 5.421875 11.28125 
Q 10.40625 8.6875 15.234375 7.390625 
Q 20.0625 6.109375 24.8125 6.109375 
Q 31.15625 6.109375 34.5625 8.28125 
Q 37.984375 10.453125 37.984375 14.40625 
Q 37.984375 18.0625 35.515625 20.015625 
Q 33.0625 21.96875 24.703125 23.78125 
L 21.578125 24.515625 
Q 13.234375 26.265625 9.515625 29.90625 
Q 5.8125 33.546875 5.8125 39.890625 
Q 5.8125 47.609375 11.28125 51.796875 
Q 16.75 56 26.8125 56 
Q 31.78125 56 36.171875 55.265625 
Q 40.578125 54.546875 44.28125 53.078125 
z
" id="DejaVuSans-115"/>
      <path d="M 30.421875 75.984375 
L 30.421875 -13.1875 
L 9.71875 -13.1875 
L 9.71875 -6.203125 
L 21.390625 -6.203125 
L 21.390625 69 
L 9.71875 69 
L 9.71875 75.984375 
z
" id="DejaVuSans-93"/>
     </defs>
     <g transform="translate(194.683594 280.276563)scale(0.1 -0.1)">
      <use xlink:href="#DejaVuSans-84"/>
      <use x="61.037109" xlink:href="#DejaVuSans-105"/>
      <use x="88.820312" xlink:href="#DejaVuSans-101"/>
      <use x="150.34375" xlink:href="#DejaVuSans-109"/>
      <use x="247.755859" xlink:href="#DejaVuSans-112"/>
      <use x="311.232422" xlink:href="#DejaVuSans-111"/>
      <use x="372.414062" xlink:href="#DejaVuSans-32"/>
      <use x="404.201172" xlink:href="#DejaVuSans-91"/>
      <use x="443.214844" xlink:href="#DejaVuSans-115"/>
      <use x="495.314453" xlink:href="#DejaVuSans-93"/>
     </g>
    </g>
   </g>
   <g id="matplotlib.axis_2">
    <g id="ytick_1">
     <g id="line2d_7">
      <defs>
       <path d="M 0 0 
L -3.5 0 
" id="mff2e071546" style="stroke:#000000;stroke-width:0.8;"/>
      </defs>
      <g>
       <use style="stroke:#000000;stroke-width:0.8;" x="54" xlink:href="#mff2e071546" y="252"/>
      </g>
     </g>
     <g id="text_8">
      <!-- −0.0100 -->
      <defs>
       <path d="M 10.59375 35.5 
L 73.1875 35.5 
L 73.1875 27.203125 
L 10.59375 27.203125 
z
" id="DejaVuSans-8722"/>
       <path d="M 10.6875 12.40625 
L 21 12.40625 
L 21 0 
L 10.6875 0 
z
" id="DejaVuSans-46"/>
      </defs>
      <g transform="translate(3.629687 255.799219)scale(0.1 -0.1)">
       <use xlink:href="#DejaVuSans-8722"/>
       <use x="83.789062" xlink:href="#DejaVuSans-48"/>
       <use x="147.412109" xlink:href="#DejaVuSans-46"/>
       <use x="179.199219" xlink:href="#DejaVuSans-48"/>
       <use x="242.822266" xlink:href="#DejaVuSans-49"/>
       <use x="306.445312" xlink:href="#DejaVuSans-48"/>
       <use x="370.068359" xlink:href="#DejaVuSans-48"/>
      </g>
     </g>
    </g>
    <g id="ytick_2">
     <g id="line2d_8">
      <g>
       <use style="stroke:#000000;stroke-width:0.8;" x="54" xlink:href="#mff2e071546" y="224.82"/>
      </g>
     </g>
     <g id="text_9">
      <!-- −0.0075 -->
      <defs>
       <path d="M 8.203125 72.90625 
L 55.078125 72.90625 
L 55.078125 68.703125 
L 28.609375 0 
L 18.3125 0 
L 43.21875 64.59375 
L 8.203125 64.59375 
z
" id="DejaVuSans-55"/>
       <path d="M 10.796875 72.90625 
L 49.515625 72.90625 
L 49.515625 64.59375 
L 19.828125 64.59375 
L 19.828125 46.734375 
Q 21.96875 47.46875 24.109375 47.828125 
Q 26.265625 48.1875 28.421875 48.1875 
Q 40.625 48.1875 47.75 41.5 
Q 54.890625 34.8125 54.890625 23.390625 
Q 54.890625 11.625 47.5625 5.09375 
Q 40.234375 -1.421875 26.90625 -1.421875 
Q 22.3125 -1.421875 17.546875 -0.640625 
Q 12.796875 0.140625 7.71875 1.703125 
L 7.71875 11.625 
Q 12.109375 9.234375 16.796875 8.0625 
Q 21.484375 6.890625 26.703125 6.890625 
Q 35.15625 6.890625 40.078125 11.328125 
Q 45.015625 15.765625 45.015625 23.390625 
Q 45.015625 31 40.078125 35.4375 
Q 35.15625 39.890625 26.703125 39.890625 
Q 22.75 39.890625 18.8125 39.015625 
Q 14.890625 38.140625 10.796875 36.28125 
z
" id="DejaVuSans-53"/>
      </defs>
      <g transform="translate(3.629687 228.619219)scale(0.1 -0.1)">
       <use xlink:href="#DejaVuSans-8722"/>
       <use x="83.789062" xlink:href="#DejaVuSans-48"/>
       <use x="147.412109" xlink:href="#DejaVuSans-46"/>
       <use x="179.199219" xlink:href="#DejaVuSans-48"/>
       <use x="242.822266" xlink:href="#DejaVuSans-48"/>
       <use x="306.445312" xlink:href="#DejaVuSans-55"/>
       <use x="370.068359" xlink:href="#DejaVuSans-53"/>
      </g>
     </g>
    </g>
    <g id="ytick_3">
     <g id="line2d_9">
      <g>
       <use style="stroke:#000000;stroke-width:0.8;" x="54" xlink:href="#mff2e071546" y="197.64"/>
      </g>
     </g>
     <g id="text_10">
      <!-- −0.0050 -->
      <g transform="translate(3.629687 201.439219)scale(0.1 -0.1)">
       <use xlink:href="#DejaVuSans-8722"/>
       <use x="83.789062" xlink:href="#DejaVuSans-48"/>
       <use x="147.412109" xlink:href="#DejaVuSans-46"/>
       <use x="179.199219" xlink:href="#DejaVuSans-48"/>
       <use x="242.822266" xlink:href="#DejaVuSans-48"/>
       <use x="306.445312" xlink:href="#DejaVuSans-53"/>
       <use x="370.068359" xlink:href="#DejaVuSans-48"/>
      </g>
     </g>
    </g>
    <g id="ytick_4">
     <g id="line2d_10">
      <g>
       <use style="stroke:#000000;stroke-width:0.8;" x="54" xlink:href="#mff2e071546" y="170.46"/>
      </g>
     </g>
     <g id="text_11">
      <!-- −0.0025 -->
      <g transform="translate(3.629687 174.259219)scale(0.1 -0.1)">
       <use xlink:href="#DejaVuSans-8722"/>
       <use x="83.789062" xlink:href="#DejaVuSans-48"/>
       <use x="147.412109" xlink:href="#DejaVuSans-46"/>
       <use x="179.199219" xlink:href="#DejaVuSans-48"/>
       <use x="242.822266" xlink:href="#DejaVuSans-48"/>
       <use x="306.445312" xlink:href="#DejaVuSans-50"/>
       <use x="370.068359" xlink:href="#DejaVuSans-53"/>
      </g>
     </g>
    </g>
    <g id="ytick_5">
     <g id="line2d_11">
      <g>
       <use style="stroke:#000000;stroke-width:0.8;" x="54" xlink:href="#mff2e071546" y="143.28"/>
      </g>
     </g>
     <g id="text_12">
      <!-- 0.0000 -->
      <g transform="translate(12.009375 147.079219)scale(0.1 -0.1)">
       <use xlink:href="#DejaVuSans-48"/>
       <use x="63.623047" xlink:href="#DejaVuSans-46"/>
       <use x="95.410156" xlink:href="#DejaVuSans-48"/>
       <use x="159.033203" xlink:href="#DejaVuSans-48"/>
       <use x="222.65625" xlink:href="#DejaVuSans-48"/>
       <use x="286.279297" xlink:href="#DejaVuSans-48"/>
      </g>
     </g>
    </g>
    <g id="ytick_6">
     <g id="line2d_12">
      <g>
       <use style="stroke:#000000;stroke-width:0.8;" x="54" xlink:href="#mff2e071546" y="116.1"/>
      </g>
     </g>
     <g id="text_13">
      <!-- 0.0025 -->
      <g transform="translate(12.009375 119.899219)scale(0.1 -0.1)">
       <use xlink:href="#DejaVuSans-48"/>
       <use x="63.623047" xlink:href="#DejaVuSans-46"/>
       <use x="95.410156" xlink:href="#DejaVuSans-48"/>
       <use x="159.033203" xlink:href="#DejaVuSans-48"/>
       <use x="222.65625" xlink:href="#DejaVuSans-50"/>
       <use x="286.279297" xlink:href="#DejaVuSans-53"/>
      </g>
     </g>
    </g>
    <g id="ytick_7">
     <g id="line2d_13">
      <g>
       <use style="stroke:#000000;stroke-width:0.8;" x="54" xlink:href="#mff2e071546" y="88.92"/>
      </g>
     </g>
     <g id="text_14">
      <!-- 0.0050 -->
      <g transform="translate(12.009375 92.719219)scale(0.1 -0.1)">
       <use xlink:href="#DejaVuSans-48"/>
       <use x="63.623047" xlink:href="#DejaVuSans-46"/>
       <use x="95.410156" xlink:href="#DejaVuSans-48"/>
       <use x="159.033203" xlink:href="#DejaVuSans-48"/>
       <use x="222.65625" xlink:href="#DejaVuSans-53"/>
       <use x="286.279297" xlink:href="#DejaVuSans-48"/>
      </g>
     </g>
    </g>
    <g id="ytick_8">
     <g id="line2d_14">
      <g>
       <use style="stroke:#000000;stroke-width:0.8;" x="54" xlink:href="#mff2e071546" y="61.74"/>
      </g>
     </g>
     <g id="text_15">
      <!-- 0.0075 -->
      <g transform="translate(12.009375 65.539219)scale(0.1 -0.1)">
       <use xlink:href="#DejaVuSans-48"/>
       <use x="63.623047" xlink:href="#DejaVuSans-46"/>
       <use x="95.410156" xlink:href="#DejaVuSans-48"/>
       <use x="159.033203" xlink:href="#DejaVuSans-48"/>
       <use x="222.65625" xlink:href="#DejaVuSans-55"/>
       <use x="286.279297" xlink:href="#DejaVuSans-53"/>
      </g>
     </g>
    </g>
    <g id="ytick_9">
     <g id="line2d_15">
      <g>
       <use style="stroke:#000000;stroke-width:0.8;" x="54" xlink:href="#mff2e071546" y="34.56"/>
      </g>
     </g>
     <g id="text_16">
      <!-- 0.0100 -->
      <g transform="translate(12.009375 38.359219)scale(0.1 -0.1)">
       <use xlink:href="#DejaVuSans-48"/>
       <use x="63.623047" xlink:href="#DejaVuSans-46"/>
       <use x="95.410156" xlink:href="#DejaVuSans-48"/>
       <use x="159.033203" xlink:href="#DejaVuSans-49"/>
       <use x="222.65625" xlink:href="#DejaVuSans-48"/>
       <use x="286.279297" xlink:href="#DejaVuSans-48"/>
      </g>
     </g>
    </g>
    <g id="text_17">
     <!-- Posición [m] -->
     <defs>
      <path d="M 19.671875 64.796875 
L 19.671875 37.40625 
L 32.078125 37.40625 
Q 38.96875 37.40625 42.71875 40.96875 
Q 46.484375 44.53125 46.484375 51.125 
Q 46.484375 57.671875 42.71875 61.234375 
Q 38.96875 64.796875 32.078125 64.796875 
z
M 9.8125 72.90625 
L 32.078125 72.90625 
Q 44.34375 72.90625 50.609375 67.359375 
Q 56.890625 61.8125 56.890625 51.125 
Q 56.890625 40.328125 50.609375 34.8125 
Q 44.34375 29.296875 32.078125 29.296875 
L 19.671875 29.296875 
L 19.671875 0 
L 9.8125 0 
z
" id="DejaVuSans-80"/>
      <path d="M 48.78125 52.59375 
L 48.78125 44.1875 
Q 44.96875 46.296875 41.140625 47.34375 
Q 37.3125 48.390625 33.40625 48.390625 
Q 24.65625 48.390625 19.8125 42.84375 
Q 14.984375 37.3125 14.984375 27.296875 
Q 14.984375 17.28125 19.8125 11.734375 
Q 24.65625 6.203125 33.40625 6.203125 
Q 37.3125 6.203125 41.140625 7.25 
Q 44.96875 8.296875 48.78125 10.40625 
L 48.78125 2.09375 
Q 45.015625 0.34375 40.984375 -0.53125 
Q 36.96875 -1.421875 32.421875 -1.421875 
Q 20.0625 -1.421875 12.78125 6.34375 
Q 5.515625 14.109375 5.515625 27.296875 
Q 5.515625 40.671875 12.859375 48.328125 
Q 20.21875 56 33.015625 56 
Q 37.15625 56 41.109375 55.140625 
Q 45.0625 54.296875 48.78125 52.59375 
z
" id="DejaVuSans-99"/>
      <path d="M 30.609375 48.390625 
Q 23.390625 48.390625 19.1875 42.75 
Q 14.984375 37.109375 14.984375 27.296875 
Q 14.984375 17.484375 19.15625 11.84375 
Q 23.34375 6.203125 30.609375 6.203125 
Q 37.796875 6.203125 41.984375 11.859375 
Q 46.1875 17.53125 46.1875 27.296875 
Q 46.1875 37.015625 41.984375 42.703125 
Q 37.796875 48.390625 30.609375 48.390625 
z
M 30.609375 56 
Q 42.328125 56 49.015625 48.375 
Q 55.71875 40.765625 55.71875 27.296875 
Q 55.71875 13.875 49.015625 6.21875 
Q 42.328125 -1.421875 30.609375 -1.421875 
Q 18.84375 -1.421875 12.171875 6.21875 
Q 5.515625 13.875 5.515625 27.296875 
Q 5.515625 40.765625 12.171875 48.375 
Q 18.84375 56 30.609375 56 
z
M 37.40625 79.984375 
L 47.125 79.984375 
L 31.203125 61.625 
L 23.734375 61.625 
z
" id="DejaVuSans-243"/>
      <path d="M 54.890625 33.015625 
L 54.890625 0 
L 45.90625 0 
L 45.90625 32.71875 
Q 45.90625 40.484375 42.875 44.328125 
Q 39.84375 48.1875 33.796875 48.1875 
Q 26.515625 48.1875 22.3125 43.546875 
Q 18.109375 38.921875 18.109375 30.90625 
L 18.109375 0 
L 9.078125 0 
L 9.078125 54.6875 
L 18.109375 54.6875 
L 18.109375 46.1875 
Q 21.34375 51.125 25.703125 53.5625 
Q 30.078125 56 35.796875 56 
Q 45.21875 56 50.046875 50.171875 
Q 54.890625 44.34375 54.890625 33.015625 
z
" id="DejaVuSans-110"/>
     </defs>
     <g transform="translate(-2.45 174.072969)rotate(-90)scale(0.1 -0.1)">
      <use xlink:href="#DejaVuSans-80"/>
      <use x="60.255859" xlink:href="#DejaVuSans-111"/>
      <use x="121.4375" xlink:href="#DejaVuSans-115"/>
      <use x="173.537109" xlink:href="#DejaVuSans-105"/>
      <use x="201.320312" xlink:href="#DejaVuSans-99"/>
      <use x="256.300781" xlink:href="#DejaVuSans-105"/>
      <use x="284.083984" xlink:href="#DejaVuSans-243"/>
      <use x="345.265625" xlink:href="#DejaVuSans-110"/>
      <use x="408.644531" xlink:href="#DejaVuSans-32"/>
      <use x="440.431641" xlink:href="#DejaVuSans-91"/>
      <use x="479.445312" xlink:href="#DejaVuSans-109"/>
      <use x="576.857422" xlink:href="#DejaVuSans-93"/>
     </g>
    </g>
   </g>
   <g id="line2d_16">
    <path clip-path="url(#pe856461979)" d="M 54 34.56 
L 54.335135 35.104053 
L 54.67027 36.730041 
L 55.005405 39.420611 
L 55.675676 47.873197 
L 56.345946 60.116227 
L 57.351351 84.466175 
L 58.691892 124.545367 
L 61.037838 197.321883 
L 62.043243 222.302263 
L 62.713514 235.102944 
L 63.383784 244.213695 
L 63.718919 247.267819 
L 64.054054 249.278316 
L 64.389189 250.226114 
L 64.724324 250.10279 
L 65.059459 248.91065 
L 65.394595 246.662694 
L 66.064865 239.103839 
L 66.735135 227.736111 
L 67.740541 204.588796 
L 69.081081 165.744941 
L 71.762162 84.56441 
L 72.767568 61.254225 
L 73.437838 49.723755 
L 74.108108 41.949845 
L 74.443243 39.572457 
L 74.778378 38.235213 
L 75.113514 37.950454 
L 75.448649 38.719976 
L 75.783784 40.535025 
L 76.118919 43.376392 
L 76.789189 52.010295 
L 77.459459 64.269182 
L 78.464865 88.333833 
L 79.805405 127.505388 
L 82.151351 197.707358 
L 83.156757 221.453668 
L 83.827027 233.469212 
L 84.497297 241.861592 
L 84.832432 244.590623 
L 85.167568 246.303144 
L 85.502703 246.983033 
L 85.837838 246.624522 
L 86.172973 245.232236 
L 86.508108 242.821143 
L 87.178378 235.053034 
L 87.848649 223.638124 
L 88.854054 200.725539 
L 90.194595 162.722315 
L 92.540541 93.10229 
L 93.545946 68.973512 
L 94.216216 56.508122 
L 94.886486 47.530423 
L 95.556757 42.391707 
L 95.891892 41.329914 
L 96.227027 41.289364 
L 96.562162 42.269439 
L 96.897297 44.259312 
L 97.567568 51.174886 
L 98.237838 61.752219 
L 99.243243 83.509024 
L 100.583784 120.315069 
L 103.264865 197.988837 
L 104.27027 220.541404 
L 104.940541 231.802037 
L 105.610811 239.507547 
L 105.945946 241.927321 
L 106.281081 243.357544 
L 106.616216 243.784894 
L 106.951351 243.206099 
L 107.286486 241.627957 
L 107.621622 239.067259 
L 108.291892 231.114166 
L 108.962162 219.671827 
L 109.967568 197.013489 
L 111.308108 159.855685 
L 113.654054 92.673737 
L 114.659459 69.7233 
L 115.32973 58.010617 
L 116 49.724159 
L 116.335135 46.972725 
L 116.67027 45.187758 
L 117.005405 44.386152 
L 117.340541 44.574945 
L 117.675676 45.751256 
L 118.010811 47.902328 
L 118.681081 55.029242 
L 119.351351 65.663679 
L 120.356757 87.214345 
L 121.697297 123.239068 
L 124.378378 198.172259 
L 125.383784 219.570709 
L 126.054054 230.105926 
L 126.724324 237.155156 
L 127.059459 239.280997 
L 127.394595 240.444062 
L 127.72973 240.633676 
L 128.064865 239.848915 
L 128.4 238.098608 
L 128.735135 235.401234 
L 129.405405 227.286215 
L 130.075676 215.835034 
L 131.081081 193.448891 
L 132.421622 157.139754 
L 134.767568 92.346166 
L 135.772973 70.535973 
L 136.443243 59.547305 
L 137.113514 51.92209 
L 137.448649 49.469401 
L 137.783784 47.957897 
L 138.118919 47.401761 
L 138.454054 47.805601 
L 138.789189 49.164417 
L 139.124324 51.463657 
L 139.794595 58.778462 
L 140.464865 69.450796 
L 141.47027 90.776071 
L 142.810811 126.013983 
L 145.156757 190.28985 
L 146.162162 212.462161 
L 146.832432 223.871763 
L 147.502703 232.042413 
L 148.172973 236.654526 
L 148.508108 237.565042 
L 148.843243 237.531168 
L 149.178378 236.554189 
L 149.513514 234.644825 
L 150.183784 228.118207 
L 150.854054 218.219049 
L 151.859459 197.958446 
L 153.2 163.818879 
L 155.881081 92.113889 
L 156.886486 71.406488 
L 157.556757 61.113825 
L 158.227027 54.120709 
L 158.562162 51.952133 
L 158.897297 50.699613 
L 159.232432 50.374766 
L 159.567568 50.979915 
L 159.902703 52.508074 
L 160.237838 54.943027 
L 160.908108 62.42343 
L 161.578378 73.115572 
L 162.583784 94.197715 
L 163.924324 128.644824 
L 166.27027 190.658608 
L 167.275676 211.742037 
L 167.945946 222.457442 
L 168.616216 229.991723 
L 168.951351 232.468629 
L 169.286486 234.050577 
L 169.621622 234.722632 
L 169.956757 234.478979 
L 170.291892 233.322974 
L 170.627027 231.267096 
L 171.297297 224.550381 
L 171.967568 214.603886 
L 172.972973 194.541881 
L 174.313514 161.133938 
L 176.994595 91.971427 
L 178 72.330022 
L 178.67027 62.706039 
L 179.340541 56.316727 
L 179.675676 54.418104 
L 180.010811 53.410591 
L 180.345946 53.303378 
L 180.681081 54.096638 
L 181.016216 55.781531 
L 181.686486 61.746483 
L 182.356757 70.95322 
L 183.027027 83.02785 
L 184.032432 105.424163 
L 186.043243 157.857025 
L 187.383784 190.934807 
L 188.389189 210.964745 
L 189.059459 221.012542 
L 189.72973 227.938211 
L 190.064865 230.140609 
L 190.4 231.47162 
L 190.735135 231.918795 
L 191.07027 231.478544 
L 191.405405 230.156162 
L 191.740541 227.965763 
L 192.410811 221.080497 
L 193.081081 211.104258 
L 194.086486 191.258362 
L 195.427027 158.586703 
L 197.772973 99.248257 
L 198.778378 78.875679 
L 199.448649 68.434083 
L 200.118919 61.000206 
L 200.454054 58.507056 
L 200.789189 56.864693 
L 201.124324 56.088703 
L 201.459459 56.185982 
L 201.794595 57.154683 
L 202.12973 58.984242 
L 202.8 65.140853 
L 203.47027 74.403408 
L 204.475676 93.268625 
L 205.816216 124.932732 
L 208.497297 191.123698 
L 209.502703 210.134926 
L 210.172973 219.541067 
L 210.843243 225.885086 
L 211.178378 227.826498 
L 211.513514 228.919939 
L 211.848649 229.155317 
L 212.183784 228.531135 
L 212.518919 227.054499 
L 212.854054 224.741037 
L 213.524324 217.707696 
L 214.194595 207.718275 
L 215.2 188.104611 
L 216.540541 156.172523 
L 218.886486 98.932725 
L 219.891892 79.566301 
L 220.562162 69.764902 
L 221.232432 62.916833 
L 221.567568 60.688806 
L 221.902703 59.289471 
L 222.237838 58.732 
L 222.572973 59.021129 
L 222.908108 60.153119 
L 223.243243 62.115798 
L 223.913514 68.443255 
L 224.583784 77.744527 
L 225.589189 96.418737 
L 226.92973 127.397906 
L 229.610811 191.230337 
L 230.616216 209.257018 
L 231.286486 218.046817 
L 231.956757 223.835357 
L 232.291892 225.528864 
L 232.627027 226.39764 
L 232.962162 226.433818 
L 233.297297 225.637867 
L 233.632432 224.018586 
L 234.302703 218.386192 
L 234.972973 209.76784 
L 235.978378 192.036096 
L 237.318919 162.033346 
L 240 98.702017 
L 241.005405 80.308878 
L 241.675676 71.123034 
L 242.345946 64.835092 
L 242.681081 62.859279 
L 243.016216 61.690185 
L 243.351351 61.338702 
L 243.686486 61.80753 
L 244.021622 63.091155 
L 244.356757 65.175918 
L 245.027027 71.654428 
L 245.697297 80.978305 
L 246.702703 99.445583 
L 248.043243 129.73589 
L 250.389189 184.512956 
L 251.394595 203.230117 
L 252.064865 212.784303 
L 252.735135 219.545709 
L 253.07027 221.791847 
L 253.405405 223.250097 
L 253.740541 223.906654 
L 254.075676 223.755751 
L 254.410811 222.799706 
L 254.745946 221.048892 
L 255.416216 215.243963 
L 256.086486 206.578817 
L 257.091892 189.014786 
L 258.432432 159.648635 
L 261.113514 98.551291 
L 262.118919 81.099137 
L 262.789189 72.504804 
L 263.459459 66.752049 
L 263.794595 65.015955 
L 264.12973 64.06476 
L 264.464865 63.907195 
L 264.8 64.544045 
L 265.135135 65.968142 
L 265.47027 68.164447 
L 266.140541 74.775204 
L 266.810811 84.106525 
L 267.816216 102.352223 
L 269.156757 131.951004 
L 271.502703 184.781186 
L 272.508108 202.568686 
L 273.178378 211.532513 
L 273.848649 217.754695 
L 274.183784 219.757195 
L 274.518919 220.99241 
L 274.854054 221.448749 
L 275.189189 221.122423 
L 275.524324 220.01748 
L 275.859459 218.145758 
L 276.52973 212.187419 
L 277.2 203.491145 
L 278.205405 186.110535 
L 279.545946 157.385477 
L 281.891892 104.978209 
L 282.897297 86.89582 
L 283.567568 77.589013 
L 284.237838 70.922315 
L 284.908108 67.15649 
L 285.243243 66.411282 
L 285.578378 66.436018 
L 285.913514 67.22968 
L 286.248649 68.783558 
L 286.918919 74.099294 
L 287.589189 82.165156 
L 288.594595 98.67759 
L 289.935135 126.506833 
L 292.616216 184.971688 
L 293.621622 201.860056 
L 294.291892 210.256356 
L 294.962162 215.963074 
L 295.297297 217.733867 
L 295.632432 218.757854 
L 295.967568 219.025535 
L 296.302703 218.534989 
L 296.637838 217.291882 
L 296.972973 215.309408 
L 297.643243 209.21584 
L 298.313514 200.503192 
L 299.318919 183.320479 
L 300.659459 155.239786 
L 303.005405 104.676456 
L 304.010811 87.481845 
L 304.681081 78.74108 
L 305.351351 72.593318 
L 305.686486 70.571215 
L 306.021622 69.278708 
L 306.356757 68.727999 
L 306.691892 68.923857 
L 307.027027 69.863575 
L 307.362162 71.537007 
L 308.032432 77.00794 
L 308.702703 85.112616 
L 309.708108 101.463458 
L 311.048649 128.696588 
L 313.72973 185.088931 
L 314.735135 201.108159 
L 315.405405 208.959209 
L 316.075676 214.173532 
L 316.410811 215.724161 
L 316.745946 216.548315 
L 317.081081 216.638473 
L 317.416216 215.994469 
L 317.751351 214.623479 
L 318.421622 209.765449 
L 319.091892 202.263935 
L 319.762162 192.423583 
L 320.767568 174.168456 
L 322.778378 131.422278 
L 324.118919 104.450196 
L 325.124324 88.114518 
L 325.794595 79.91812 
L 326.464865 74.266664 
L 326.8 72.468434 
L 327.135135 71.38059 
L 327.47027 71.013307 
L 327.805405 71.36954 
L 328.140541 72.444999 
L 328.475676 74.228204 
L 329.145946 79.836765 
L 329.816216 87.965904 
L 330.821622 104.140866 
L 332.162162 130.774067 
L 334.508108 179.155753 
L 335.513514 195.770467 
L 336.183784 204.28774 
L 336.854054 210.353374 
L 337.189189 212.388585 
L 337.524324 213.730215 
L 337.859459 214.365531 
L 338.194595 214.288883 
L 338.52973 213.50175 
L 338.864865 212.01272 
L 339.535135 206.998228 
L 340.205405 199.450996 
L 341.210811 184.075721 
L 342.551351 158.26429 
L 345.232432 104.295151 
L 346.237838 88.790053 
L 346.908108 81.116867 
L 347.578378 75.939737 
L 347.913514 74.354355 
L 348.248649 73.460275 
L 348.583784 73.265751 
L 348.918919 73.77203 
L 349.254054 74.973345 
L 349.589189 76.856979 
L 350.259459 82.586467 
L 350.92973 90.726561 
L 351.935135 106.712486 
L 353.275676 132.743061 
L 355.621622 179.41403 
L 356.627027 195.208411 
L 357.297297 203.203671 
L 357.967568 208.791598 
L 358.302703 210.610592 
L 358.637838 211.754012 
L 358.972973 212.211092 
L 359.308108 211.977946 
L 359.643243 211.057595 
L 359.978378 209.459939 
L 360.648649 204.30596 
L 361.318919 196.726958 
L 362.324324 181.507111 
L 363.664865 156.25376 
L 366.345946 104.207197 
L 367.351351 89.504834 
L 368.021622 82.334221 
L 368.691892 77.610081 
L 369.027027 76.226882 
L 369.362162 75.516044 
L 369.697297 75.484008 
L 370.032432 76.130415 
L 370.367568 77.448118 
L 371.037838 82.035419 
L 371.708108 89.0576 
L 372.713514 103.508925 
L 374.054054 127.96591 
L 376.735135 179.603119 
L 377.740541 194.60396 
L 378.410811 202.097295 
L 379.081081 207.228452 
L 379.416216 208.841754 
L 379.751351 209.797389 
L 380.086486 210.086451 
L 380.421622 209.706715 
L 380.756757 208.662649 
L 381.091892 206.965366 
L 381.762162 201.688041 
L 382.432432 194.090413 
L 383.437838 179.038989 
L 384.778378 154.346932 
L 387.124324 109.684242 
L 388.12973 94.41952 
L 388.8 86.626052 
L 388.8 86.626052 
" style="fill:none;stroke:#1f77b4;stroke-linecap:square;stroke-width:1.5;"/>
   </g>
   <g id="patch_3">
    <path d="M 54 252 
L 54 34.56 
" style="fill:none;stroke:#000000;stroke-linecap:square;stroke-linejoin:miter;stroke-width:0.8;"/>
   </g>
   <g id="patch_4">
    <path d="M 388.8 252 
L 388.8 34.56 
" style="fill:none;stroke:#000000;stroke-linecap:square;stroke-linejoin:miter;stroke-width:0.8;"/>
   </g>
   <g id="patch_5">
    <path d="M 54 252 
L 388.8 252 
" style="fill:none;stroke:#000000;stroke-linecap:square;stroke-linejoin:miter;stroke-width:0.8;"/>
   </g>
   <g id="patch_6">
    <path d="M 54 34.56 
L 388.8 34.56 
" style="fill:none;stroke:#000000;stroke-linecap:square;stroke-linejoin:miter;stroke-width:0.8;"/>
   </g>
  </g>
 </g>
 <defs>
  <clipPath id="pe856461979">
   <rect height="217.44" width="334.8" x="54" y="34.56"/>
  </clipPath>
 </defs>
</svg>
