\relax 
\catcode `"\active 
\catcode `<\active 
\catcode `>\active 
\@nameuse{es@quoting}
\newlabel{FirstPage}{{}{1}{}{}{}}
\@writefile{toc}{\contentsline {title}{\IeC {\'O}ptica}{1}{}}
\@writefile{toc}{\contentsline {abstract}{Resumen}{1}{}}
\@writefile{toc}{\contentsline {section}{\numberline {I}Introducci\IeC {\'o}n}{1}{}}
\@writefile{toc}{\contentsline {subsection}{\numberline {A}Refracci\IeC {\'o}n}{1}{}}
\@writefile{lof}{\contentsline {figure}{\numberline {1}{\ignorespaces Diagrama de rayos.}}{1}{}}
\newlabel{fig:rayos}{{1}{1}{}{}{}}
\@writefile{toc}{\contentsline {subsection}{\numberline {B}Lente}{1}{}}
\@writefile{toc}{\contentsline {section}{\numberline {II}Estudio de la reflexi\IeC {\'o}n y refracci\IeC {\'o}n}{1}{}}
\@writefile{toc}{\contentsline {subsection}{\numberline {A}Dependencia con \IeC {\'a}ngulo de incidencia}{1}{}}
\@writefile{toc}{\contentsline {subsection}{\numberline {B}Reflexi\IeC {\'o}n total interna}{1}{}}
\@writefile{toc}{\contentsline {section}{\numberline {III}Lentes convergentes y divergentes}{2}{}}
\@writefile{toc}{\contentsline {subsection}{\numberline {A}Lente convergente: estudio cualitativo}{2}{}}
\@writefile{toc}{\contentsline {subsection}{\numberline {B}Lente convergente: estudio cuantitativo}{2}{}}
\@writefile{lof}{\contentsline {figure}{\numberline {2}{\ignorespaces Esquema del montaje para lentes convergentes.}}{2}{}}
\newlabel{fig:convergente}{{2}{2}{}{}{}}
\@writefile{toc}{\contentsline {subsection}{\numberline {C}Lente divergente}{2}{}}
\bibdata{ópticaNotes}
\bibstyle{aipnum4-1}
\citation{REVTEX41Control}
\citation{aip41Control}
\@writefile{lof}{\contentsline {figure}{\numberline {3}{\ignorespaces Esquema del montaje para lentes divergentes.}}{3}{}}
\newlabel{fig:divergente}{{3}{3}{}{}{}}
\newlabel{LastPage}{{}{3}{}{}{}}
